{
    "prepare_queue": {
        "installed": [],
        "uninstalled": []
    },
    "config_munge": {
        "files": {}
    },
    "installed_plugins": {
        "cordova-plugin-audioinput": {
            "PACKAGE_NAME": "io.cordova.hrmusic"
        },
        "cordova-plugin-compat": {
            "PACKAGE_NAME": "io.cordova.hrmusic"
        },
        "cordova-plugin-file": {
            "PACKAGE_NAME": "io.cordova.hrmusic"
        },
        "cordova-plugin-whitelist": {
            "PACKAGE_NAME": "io.cordova.hrmusic"
        }
    },
    "dependent_plugins": {}
}